
-- -- -- -- Addition to the end -- -- -- --
DoublyLinkedList(e) 	14 ms
DynamicArray(e) 	7 ms
-- -- -- -- Delete from start-- -- -- --
DoublyLinkedList(e) 	5 ms
DynamicArray(e) 	1173 ms
 -- -- -- -- Delete from center -- -- -- --
DoublyLinkedList(e) 	4803 ms
DynamicArray(e) 	444 ms
-- -- -- -- Delete from end -- -- -- --
DoublyLinkedList(e) 	1 ms
DynamicArray(e) 	1 ms